calculations/sodium-absorption/single/full.csv

Model,DPO2024B
Firmware Version,1.52

Point Format,Y,
Horizontal Units,S,
Horizontal Scale,0.002,
Sample Interval,1.6e-07,
Filter Frequency,2e+08,
Record Length,125000,
Gating,0.0% to 100.0%,
Probe Attenuation,1,
Vertical Units,V,
Vertical Offset,0,
Vertical Scale,0.1,
Label,,
TIME,CH1,CH1 Peak Detect
-1.20800e-02,0.474,0.466
-1.20798e-02,0.478,0.462
-1.20797e-02,0.482,0.478
-1.20795e-02,0.478,0.474
-1.20794e-02,0.478,0.482
-1.20792e-02,0.482,0.474
-1.20790e-02,0.478,0.482
-1.20789e-02,0.482,0.478
-1.20787e-02,0.482,0.482
-1.20786e-02,0.482,0.478
-1.20784e-02,0.482,0.482
-1.20782e-02,0.482,0.478
-1.20781e-02,0.478,0.486
-1.20779e-02,0.478,0.478
-1.20778e-02,0.478,0.486
-1.20776e-02,0.482,0.478
-1.20774e-02,0.478,0.482
-1.20773e-02,0.478,0.478
-1.20771e-02,0.478,0.482
-1.20770e-02,0.474,0.474
-1.20768e-02,0.47,0.486
-1.20766e-02,0.474,0.47
-1.20765e-02,0.47,0.478
-1.20763e-02,0.47,0.466
-1.20762e-02,0.47,0.474
-1.20760e-02,0.47,0.466
-1.20758e-02,0.47,0.474
-1.20757e-02,0.47,0.466
-1.20755e-02,0.47,0.474
-1.20754e-02,0.47,0.466
-1.20752e-02,0.474,0.474
-1.20750e-02,0.474,0.466
-1.20749e-02,0.474,0.478
-1.20747e-02,0.474,0.47
-1.20746e-02,0.47,0.478
-1.20744e-02,0.47,0.47
-1.20742e-02,0.47,0.478
-1.20741e-02,0.47,0.466
-1.20739e-02,0.47,0.474
-1.20738e-02,0.474,0.466
-1.20736e-02,0.474,0.474
-1.20734e-02,0.478,0.466
-1.20733e-02,0.478,0.478
-1.20731e-02,0.478,0.474
-1.20730e-02,0.474,0.482
-1.20728e-02,0.474,0.474
-1.20726e-02,0.474,0.482
-1.20725e-02,0.474,0.47
-1.20723e-02,0.478,0.478
-1.20722e-02,0.474,0.47
-1.20720e-02,0.474,0.478
-1.20718e-02,0.47,0.47
-1.20717e-02,0.47,0.478
-1.20715e-02,0.47,0.466
-1.20714e-02,0.47,0.478
-1.20712e-02,0.47,0.466
-1.20710e-02,0.474,0.474
-1.20709e-02,0.478,0.466
-1.20707e-02,0.478,0.474
-1.20706e-02,0.478,0.47
-1.20704e-02,0.478,0.478
-1.20702e-02,0.478,0.474
-1.20701e-02,0.478,0.482
-1.20699e-02,0.474,0.474
-1.20698e-02,0.478,0.482
-1.20696e-02,0.478,0.474
-1.20694e-02,0.478,0.482
-1.20693e-02,0.478,0.474
-1.20691e-02,0.474,0.482
-1.20690e-02,0.474,0.474
-1.20688e-02,0.474,0.478
-1.20686e-02,0.466,0.47
-1.20685e-02,0.47,0.478
-1.20683e-02,0.47,0.466
-1.20682e-02,0.47,0.474
-1.20680e-02,0.47,0.466
-1.20678e-02,0.47,0.474
-1.20677e-02,0.47,0.466
-1.20675e-02,0.47,0.474
-1.20674e-02,0.47,0.466
-1.20672e-02,0.47,0.474
-1.20670e-02,0.466,0.466
-1.20669e-02,0.466,0.47
-1.20667e-02,0.47,0.462
-1.20666e-02,0.474,0.47
-1.20664e-02,0.474,0.466
-1.20662e-02,0.474,0.474
-1.20661e-02,0.474,0.47
-1.20659e-02,0.478,0.474
-1.20658e-02,0.47,0.47
-1.20656e-02,0.474,0.478
-1.20654e-02,0.478,0.47
-1.20653e-02,0.478,0.478
-1.20651e-02,0.478,0.474
-1.20650e-02,0.482,0.482
-1.20648e-02,0.482,0.474
-1.20646e-02,0.482,0.482
-1.20645e-02,0.486,0.478
-1.20643e-02,0.486,0.486
-1.20642e-02,0.486,0.478
-1.20640e-02,0.482,0.49
-1.20638e-02,0.482,0.482
-1.20637e-02,0.478,0.486
-1.20635e-02,0.474,0.478
-1.20634e-02,0.47,0.486
-1.20632e-02,0.466,0.47
-1.20630e-02,0.47,0.482
-1.20629e-02,0.466,0.462
-1.20627e-02,0.466,0.474
-1.20626e-02,0.474,0.462
-1.20624e-02,0.474,0.47
-1.20622e-02,0.478,0.466
-1.20621e-02,0.478,0.478
-1.20619e-02,0.478,0.474
-1.20618e-02,0.478,0.482
-1.20616e-02,0.478,0.474
-1.20614e-02,0.478,0.482
-1.20613e-02,0.478,0.474
-1.20611e-02,0.474,0.482
-1.20610e-02,0.474,0.474
-1.20608e-02,0.474,0.482
-1.20606e-02,0.474,0.474
-1.20605e-02,0.474,0.478
-1.20603e-02,0.474,0.47
-1.20602e-02,0.474,0.478
-1.20600e-02,0.474,0.47
-1.20598e-02,0.478,0.478
-1.20597e-02,0.482,0.474
-1.20595e-02,0.478,0.478
-1.20594e-02,0.478,0.474
-1.20592e-02,0.482,0.482
-1.20590e-02,0.486,0.474
-1.20589e-02,0.486,0.482
-1.20587e-02,0.486,0.478
-1.20586e-02,0.486,0.49
-1.20584e-02,0.482,0.482
-1.20582e-02,0.482,0.49
-1.20581e-02,0.474,0.478
-1.20579e-02,0.474,0.49
-1.20578e-02,0.474,0.47
-1.20576e-02,0.47,0.482
-1.20574e-02,0.474,0.47
-1.20573e-02,0.474,0.474
-1.20571e-02,0.478,0.47
-1.20570e-02,0.482,0.478
-1.20568e-02,0.482,0.474
-1.20566e-02,0.486,0.482
-1.20565e-02,0.49,0.478
-1.20563e-02,0.49,0.49
-1.20562e-02,0.486,0.482
-1.20560e-02,0.49,0.494
-1.20558e-02,0.486,0.486
-1.20557e-02,0.482,0.49
-1.20555e-02,0.478,0.478
-1.20554e-02,0.478,0.49
-1.20552e-02,0.478,0.478
-1.20550e-02,0.482,0.486
-1.20549e-02,0.482,0.478
-1.20547e-02,0.482,0.482
-1.20546e-02,0.486,0.478
-1.20544e-02,0.486,0.486
-1.20542e-02,0.486,0.478
-1.20541e-02,0.49,0.486
-1.20539e-02,0.49,0.482
-1.20538e-02,0.49,0.49
-1.20536e-02,0.486,0.486
-1.20534e-02,0.482,0.494
-1.20533e-02,0.478,0.478
-1.20531e-02,0.474,0.49
-1.20530e-02,0.47,0.47
-1.20528e-02,0.47,0.482
-1.20526e-02,0.47,0.466
-1.20525e-02,0.474,0.478
-1.20523e-02,0.478,0.466
-1.20522e-02,0.482,0.474
-1.20520e-02,0.486,0.47
-1.20518e-02,0.486,0.482
-1.20517e-02,0.49,0.478
-1.20515e-02,0.486,0.49
-1.20514e-02,0.486,0.482
-1.20512e-02,0.486,0.494
-1.20510e-02,0.486,0.482
-1.20509e-02,0.482,0.49
-1.20507e-02,0.482,0.478
-1.20506e-02,0.486,0.486
-1.20504e-02,0.486,0.478
-1.20502e-02,0.482,0.486
-1.20501e-02,0.486,0.478
-1.20499e-02,0.486,0.49
-1.20498e-02,0.486,0.482
-1.20496e-02,0.486,0.49
-1.20494e-02,0.486,0.482
-1.20493e-02,0.486,0.49
-1.20491e-02,0.486,0.482
-1.20490e-02,0.482,0.49
-1.20488e-02,0.482,0.482
-1.20486e-02,0.478,0.49
-1.20485e-02,0.478,0.478
-1.20483e-02,0.474,0.486
-1.20482e-02,0.474,0.474
-1.20480e-02,0.474,0.482
-1.20478e-02,0.474,0.47
-1.20477e-02,0.474,0.482
-1.20475e-02,0.474,0.47
-1.20474e-02,0.478,0.478
-1.20472e-02,0.482,0.47
-1.20470e-02,0.482,0.482
-1.20469e-02,0.486,0.478
-1.20467e-02,0.486,0.486
-1.20466e-02,0.49,0.482
-1.20464e-02,0.486,0.49
-1.20462e-02,0.486,0.482
-1.20461e-02,0.486,0.49
-1.20459e-02,0.486,0.482
-1.20458e-02,0.49,0.49
-1.20456e-02,0.49,0.482
-1.20454e-02,0.49,0.49
-1.20453e-02,0.494,0.486
-1.20451e-02,0.494,0.494
-1.20450e-02,0.498,0.49
-1.20448e-02,0.494,0.498
-1.20446e-02,0.494,0.494
-1.20445e-02,0.49,0.498
-1.20443e-02,0.49,0.49
-1.20442e-02,0.482,0.498
-1.20440e-02,0.478,0.478
-1.20438e-02,0.478,0.494
-1.20437e-02,0.478,0.474
-1.20435e-02,0.478,0.486
-1.20434e-02,0.478,0.474
-1.20432e-02,0.478,0.478
-1.20430e-02,0.474,0.474
-1.20429e-02,0.474,0.482
-1.20427e-02,0.474,0.47
-1.20426e-02,0.478,0.478
-1.20424e-02,0.482,0.47
-1.20422e-02,0.478,0.478
-1.20421e-02,0.482,0.474
-1.20419e-02,0.486,0.486
-1.20418e-02,0.486,0.478
-1.20416e-02,0.486,0.486
-1.20414e-02,0.486,0.482
-1.20413e-02,0.49,0.49
-1.20411e-02,0.486,0.482
-1.20410e-02,0.49,0.49
-1.20408e-02,0.49,0.482
-1.20406e-02,0.49,0.49
-1.20405e-02,0.49,0.486
-1.20403e-02,0.49,0.494
-1.20402e-02,0.49,0.486
-1.20400e-02,0.494,0.494
-1.20398e-02,0.494,0.486
-1.20397e-02,0.494,0.494
-1.20395e-02,0.502,0.49
-1.20394e-02,0.494,0.498
-1.20392e-02,0.494,0.494
-1.20390e-02,0.49,0.502
-1.20389e-02,0.49,0.486
-1.20387e-02,0.486,0.498
-1.20386e-02,0.486,0.482
-1.20384e-02,0.486,0.494
-1.20382e-02,0.486,0.482
-1.20381e-02,0.482,0.49
-1.20379e-02,0.482,0.478
-1.20378e-02,0.482,0.486
-1.20376e-02,0.482,0.478
-1.20374e-02,0.49,0.486
-1.20373e-02,0.49,0.478
-1.20371e-02,0.494,0.49
-1.20370e-02,0.494,0.482
-1.20368e-02,0.494,0.494
-1.20366e-02,0.494,0.49
-1.20365e-02,0.49,0.498
-1.20363e-02,0.49,0.49
-1.20362e-02,0.49,0.498
-1.20360e-02,0.49,0.486
-1.20358e-02,0.49,0.494
-1.20357e-02,0.49,0.486
-1.20355e-02,0.49,0.494
-1.20354e-02,0.49,0.486
-1.20352e-02,0.49,0.494
-1.20350e-02,0.49,0.486
-1.20349e-02,0.494,0.494
-1.20347e-02,0.494,0.486
-1.20346e-02,0.49,0.494
-1.20344e-02,0.494,0.49
-1.20342e-02,0.49,0.498
-1.20341e-02,0.49,0.49
-1.20339e-02,0.49,0.498
-1.20338e-02,0.49,0.482
-1.20336e-02,0.486,0.494
-1.20334e-02,0.486,0.482
-1.20333e-02,0.49,0.49
-1.20331e-02,0.49,0.482
-1.20330e-02,0.49,0.49
-1.20328e-02,0.486,0.482
-1.20326e-02,0.486,0.494
-1.20325e-02,0.482,0.482
-1.20323e-02,0.482,0.49
-1.20322e-02,0.478,0.478
-1.20320e-02,0.482,0.49
-1.20318e-02,0.486,0.478
-1.20317e-02,0.486,0.486
-1.20315e-02,0.49,0.478
-1.20314e-02,0.494,0.49
-1.20312e-02,0.498,0.482
-1.20310e-02,0.502,0.494
-1.20309e-02,0.498,0.49
-1.20307e-02,0.498,0.502
-1.20306e-02,0.494,0.494
-1.20304e-02,0.494,0.502
-1.20302e-02,0.49,0.49
-1.20301e-02,0.482,0.502
-1.20299e-02,0.478,0.482
-1.20298e-02,0.478,0.494
-1.20296e-02,0.478,0.478
-1.20294e-02,0.478,0.486
-1.20293e-02,0.482,0.478
-1.20291e-02,0.482,0.482
-1.20290e-02,0.486,0.478
-1.20288e-02,0.486,0.49
-1.20286e-02,0.49,0.482
-1.20285e-02,0.486,0.49
-1.20283e-02,0.482,0.482
-1.20282e-02,0.478,0.49
-1.20280e-02,0.474,0.474
-1.20278e-02,0.474,0.486
-1.20277e-02,0.47,0.47
-1.20275e-02,0.474,0.478
-1.20274e-02,0.478,0.466
-1.20272e-02,0.482,0.474
-1.20270e-02,0.486,0.47
-1.20269e-02,0.49,0.486
-1.20267e-02,0.494,0.478
-1.20266e-02,0.498,0.494
-1.20264e-02,0.498,0.49
-1.20262e-02,0.494,0.498
-1.20261e-02,0.494,0.494
-1.20259e-02,0.49,0.502
-1.20258e-02,0.482,0.486
-1.20256e-02,0.482,0.498
-1.20254e-02,0.482,0.478
-1.20253e-02,0.482,0.49
-1.20251e-02,0.486,0.478
-1.20250e-02,0.49,0.486
-1.20248e-02,0.49,0.478
-1.20246e-02,0.494,0.49
-1.20245e-02,0.498,0.486
-1.20243e-02,0.494,0.494
-1.20242e-02,0.494,0.49
-1.20240e-02,0.49,0.498
-1.20238e-02,0.49,0.486
-1.20237e-02,0.49,0.498
-1.20235e-02,0.49,0.486
-1.20234e-02,0.49,0.494
-1.20232e-02,0.486,0.486
-1.20230e-02,0.486,0.494
-1.20229e-02,0.49,0.482
-1.20227e-02,0.494,0.49
-1.20226e-02,0.494,0.482
-1.20224e-02,0.502,0.494
-1.20222e-02,0.498,0.49
-1.20221e-02,0.506,0.502
-1.20219e-02,0.506,0.498
-1.20218e-02,0.51,0.506
-1.20216e-02,0.506,0.502
-1.20214e-02,0.506,0.51
-1.20213e-02,0.502,0.502
-1.20211e-02,0.502,0.51
-1.20210e-02,0.498,0.498
-1.20208e-02,0.498,0.51
-1.20206e-02,0.49,0.494
-1.20205e-02,0.486,0.502
-1.20203e-02,0.486,0.486
-1.20202e-02,0.486,0.498
-1.20200e-02,0.49,0.482
-1.20198e-02,0.49,0.494
-1.20197e-02,0.494,0.482
-1.20195e-02,0.486,0.49
-1.20194e-02,0.49,0.486
-1.20192e-02,0.49,0.494
-1.20190e-02,0.486,0.486
-1.20189e-02,0.49,0.49
-1.20187e-02,0.49,0.482
-1.20186e-02,0.49,0.49
-1.20184e-02,0.486,0.482
-1.20182e-02,0.49,0.49
-1.20181e-02,0.494,0.482
-1.20179e-02,0.498,0.494
-1.20178e-02,0.498,0.49
-1.20176e-02,0.498,0.502
-1.20174e-02,0.498,0.494
-1.20173e-02,0.498,0.502
-1.20171e-02,0.494,0.494
-1.20170e-02,0.494,0.502
-1.20168e-02,0.494,0.49
-1.20166e-02,0.49,0.498
-1.20165e-02,0.494,0.486
-1.20163e-02,0.494,0.494
-1.20162e-02,0.498,0.486
-1.20160e-02,0.498,0.498
-1.20158e-02,0.498,0.494
-1.20157e-02,0.498,0.502
-1.20155e-02,0.494,0.494
-1.20154e-02,0.494,0.502
-1.20152e-02,0.494,0.49
-1.20150e-02,0.494,0.502
-1.20149e-02,0.49,0.49
-1.20147e-02,0.49,0.498
-1.20146e-02,0.486,0.486
-1.20144e-02,0.49,0.494
-1.20142e-02,0.49,0.482
-1.20141e-02,0.494,0.49
-1.20139e-02,0.494,0.486
-1.20138e-02,0.498,0.498
-1.20136e-02,0.498,0.49
-1.20134e-02,0.498,0.498
-1.20133e-02,0.498,0.494
-1.20131e-02,0.494,0.502
-1.20130e-02,0.49,0.494
-1.20128e-02,0.49,0.502
-1.20126e-02,0.486,0.486
-1.20125e-02,0.486,0.498
-1.20123e-02,0.482,0.478
-1.20122e-02,0.486,0.49
-1.20120e-02,0.482,0.478
-1.20118e-02,0.486,0.486
-1.20117e-02,0.49,0.482
-1.20115e-02,0.49,0.49
-1.20114e-02,0.49,0.482
-1.20112e-02,0.49,0.49
-1.20110e-02,0.486,0.486
-1.20109e-02,0.49,0.494
-1.20107e-02,0.49,0.482
-1.20106e-02,0.494,0.494
-1.20104e-02,0.498,0.486
-1.20102e-02,0.498,0.498
-1.20101e-02,0.502,0.494
-1.20099e-02,0.502,0.502
-1.20098e-02,0.502,0.498
-1.20096e-02,0.498,0.502
-1.20094e-02,0.498,0.498
-1.20093e-02,0.494,0.506
-1.20091e-02,0.494,0.49
-1.20090e-02,0.49,0.502
-1.20088e-02,0.486,0.486
-1.20086e-02,0.486,0.494
-1.20085e-02,0.486,0.482
-1.20083e-02,0.482,0.494
-1.20082e-02,0.486,0.482
-1.20080e-02,0.49,0.486
-1.20078e-02,0.49,0.482
-1.20077e-02,0.49,0.49
-1.20075e-02,0.494,0.486
-1.20074e-02,0.494,0.498
-1.20072e-02,0.49,0.49
-1.20070e-02,0.49,0.498
-1.20069e-02,0.494,0.49
-1.20067e-02,0.498,0.494
-1.20066e-02,0.498,0.49
-1.20064e-02,0.498,0.498
-1.20062e-02,0.494,0.494
-1.20061e-02,0.494,0.502
-1.20059e-02,0.494,0.49
-1.20058e-02,0.494,0.498
-1.20056e-02,0.494,0.49
-1.20054e-02,0.498,0.498
-1.20053e-02,0.498,0.49
-1.20051e-02,0.502,0.498
-1.20050e-02,0.502,0.494
-1.20048e-02,0.502,0.502
-1.20046e-02,0.494,0.494
-1.20045e-02,0.494,0.502
-1.20043e-02,0.494,0.494
-1.20042e-02,0.494,0.502
-1.20040e-02,0.494,0.49
-1.20038e-02,0.494,0.498
-1.20037e-02,0.494,0.49
-1.20035e-02,0.498,0.498
-1.20034e-02,0.502,0.494
-1.20032e-02,0.506,0.502
-1.20030e-02,0.506,0.494
-1.20029e-02,0.51,0.506
-1.20027e-02,0.518,0.498
-1.20026e-02,0.518,0.514
-1.20024e-02,0.518,0.51
-1.20022e-02,0.514,0.522
-1.20021e-02,0.51,0.51
-1.20019e-02,0.502,0.522
-1.20018e-02,0.498,0.502
-1.20016e-02,0.494,0.518
-1.20014e-02,0.49,0.49
-1.20013e-02,0.49,0.506
-1.20011e-02,0.49,0.486
-1.20010e-02,0.494,0.494
-1.20008e-02,0.502,0.486
-1.20006e-02,0.502,0.498
-1.20005e-02,0.502,0.49
-1.20003e-02,0.494,0.506
-1.20002e-02,0.49,0.494
-1.20000e-02,0.49,0.506
-1.19998e-02,0.49,0.486
-1.19997e-02,0.482,0.502
-1.19995e-02,0.478,0.482
-1.19994e-02,0.482,0.494
-1.19992e-02,0.482,0.478
-1.19990e-02,0.482,0.486
-1.19989e-02,0.49,0.478
-1.19987e-02,0.494,0.486
-1.19986e-02,0.498,0.482
-1.19984e-02,0.502,0.498
-1.19982e-02,0.502,0.49
-1.19981e-02,0.506,0.506
-1.19979e-02,0.502,0.502
-1.19978e-02,0.502,0.51
-1.19976e-02,0.498,0.498
-1.19974e-02,0.494,0.51
-1.19973e-02,0.494,0.494
-1.19971e-02,0.494,0.502
-1.19970e-02,0.498,0.49
-1.19968e-02,0.498,0.498
-1.19966e-02,0.494,0.494
-1.19965e-02,0.494,0.498
-1.19963e-02,0.498,0.49
-1.19962e-02,0.494,0.502
-1.19960e-02,0.494,0.494
-1.19958e-02,0.494,0.498
-1.19957e-02,0.498,0.49
-1.19955e-02,0.49,0.498
-1.19954e-02,0.494,0.49
-1.19952e-02,0.49,0.498
-1.19950e-02,0.49,0.486
-1.19949e-02,0.49,0.494
-1.19947e-02,0.494,0.486
-1.19946e-02,0.498,0.494
-1.19944e-02,0.498,0.49
-1.19942e-02,0.502,0.502
-1.19941e-02,0.502,0.494
-1.19939e-02,0.502,0.506
-1.19938e-02,0.506,0.498
-1.19936e-02,0.506,0.506
-1.19934e-02,0.51,0.502
-1.19933e-02,0.506,0.51
-1.19931e-02,0.506,0.502
-1.19930e-02,0.502,0.51
-1.19928e-02,0.502,0.498
-1.19926e-02,0.498,0.51
-1.19925e-02,0.498,0.498
-1.19923e-02,0.494,0.506
-1.19922e-02,0.494,0.49
-1.19920e-02,0.494,0.502
-1.19918e-02,0.49,0.49
-1.19917e-02,0.494,0.498
-1.19915e-02,0.494,0.49
-1.19914e-02,0.494,0.498
-1.19912e-02,0.494,0.49
-1.19910e-02,0.494,0.498
-1.19909e-02,0.494,0.49
-1.19907e-02,0.494,0.498
-1.19906e-02,0.494,0.49
-1.19904e-02,0.49,0.498
-1.19902e-02,0.49,0.49
-1.19901e-02,0.49,0.498
-1.19899e-02,0.49,0.49
-1.19898e-02,0.49,0.494
-1.19896e-02,0.49,0.486
-1.19894e-02,0.49,0.494
-1.19893e-02,0.49,0.486
-1.19891e-02,0.49,0.494
-1.19890e-02,0.494,0.486
-1.19888e-02,0.494,0.494
-1.19886e-02,0.494,0.486
-1.19885e-02,0.494,0.498
-1.19883e-02,0.49,0.49
-1.19882e-02,0.494,0.498
-1.19880e-02,0.49,0.486
-1.19878e-02,0.49,0.494
-1.19877e-02,0.49,0.486
-1.19875e-02,0.486,0.494
-1.19874e-02,0.49,0.486
-1.19872e-02,0.49,0.494
-1.19870e-02,0.49,0.486
-1.19869e-02,0.486,0.494
-1.19867e-02,0.49,0.486
-1.19866e-02,0.49,0.49
-1.19864e-02,0.486,0.482
-1.19862e-02,0.486,0.49
-1.19861e-02,0.49,0.482
-1.19859e-02,0.494,0.49
-1.19858e-02,0.494,0.482
-1.19856e-02,0.498,0.494
-1.19854e-02,0.506,0.486
-1.19853e-02,0.506,0.502
-1.19851e-02,0.51,0.498
-1.19850e-02,0.51,0.506
-1.19848e-02,0.506,0.502
-1.19846e-02,0.506,0.51
-1.19845e-02,0.506,0.502
-1.19843e-02,0.51,0.51
-1.19842e-02,0.51,0.502
-1.19840e-02,0.51,0.51
-1.19838e-02,0.506,0.506
-1.19837e-02,0.506,0.514
-1.19835e-02,0.502,0.502
-1.19834e-02,0.498,0.514
-1.19832e-02,0.494,0.494
-1.19830e-02,0.494,0.506
-1.19829e-02,0.494,0.49
-1.19827e-02,0.494,0.498
-1.19826e-02,0.494,0.49
-1.19824e-02,0.49,0.498
-1.19822e-02,0.49,0.49
-1.19821e-02,0.49,0.498
-1.19819e-02,0.494,0.49
-1.19818e-02,0.494,0.494
-1.19816e-02,0.498,0.49
-1.19814e-02,0.494,0.498
-1.19813e-02,0.49,0.49
-1.19811e-02,0.49,0.498
-1.19810e-02,0.49,0.486
-1.19808e-02,0.486,0.498
-1.19806e-02,0.486,0.482
-1.19805e-02,0.486,0.494
-1.19803e-02,0.486,0.482
-1.19802e-02,0.494,0.49
-1.19800e-02,0.494,0.482
-1.19798e-02,0.494,0.494
-1.19797e-02,0.498,0.486
-1.19795e-02,0.502,0.498
-1.19794e-02,0.502,0.494
-1.19792e-02,0.502,0.502
-1.19790e-02,0.498,0.494
-1.19789e-02,0.498,0.506
-1.19787e-02,0.494,0.494
-1.19786e-02,0.494,0.502
-1.19784e-02,0.486,0.49
-1.19782e-02,0.486,0.498
-1.19781e-02,0.49,0.486
-1.19779e-02,0.49,0.494
-1.19778e-02,0.49,0.482
-1.19776e-02,0.494,0.49
-1.19774e-02,0.494,0.486
-1.19773e-02,0.494,0.494
-1.19771e-02,0.494,0.49
-1.19770e-02,0.49,0.498
-1.19768e-02,0.494,0.49
-1.19766e-02,0.494,0.498
-1.19765e-02,0.494,0.49
-1.19763e-02,0.494,0.494
-1.19762e-02,0.498,0.49
-1.19760e-02,0.502,0.498
-1.19758e-02,0.502,0.494
-1.19757e-02,0.502,0.502
-1.19755e-02,0.498,0.498
-1.19754e-02,0.498,0.506
-1.19752e-02,0.498,0.494
-1.19750e-02,0.498,0.506
-1.19749e-02,0.498,0.49
-1.19747e-02,0.494,0.502
-1.19746e-02,0.494,0.49
-1.19744e-02,0.498,0.498
-1.19742e-02,0.502,0.494
-1.19741e-02,0.502,0.502
-1.19739e-02,0.502,0.498
-1.19738e-02,0.506,0.502
-1.19736e-02,0.502,0.498
-1.19734e-02,0.502,0.506
-1.19733e-02,0.506,0.498
-1.19731e-02,0.506,0.506
-1.19730e-02,0.506,0.502
-1.19728e-02,0.506,0.506
-1.19726e-02,0.502,0.502
-1.19725e-02,0.502,0.51
-1.19723e-02,0.502,0.498
-1.19722e-02,0.502,0.51
-1.19720e-02,0.502,0.498
-1.19718e-02,0.502,0.506
-1.19717e-02,0.498,0.498
-1.19715e-02,0.498,0.506
-1.19714e-02,0.502,0.494
-1.19712e-02,0.498,0.506
-1.19710e-02,0.498,0.498
-1.19709e-02,0.502,0.502
-1.19707e-02,0.502,0.494
-1.19706e-02,0.498,0.502
-1.19704e-02,0.498,0.494
-1.19702e-02,0.494,0.502
-1.19701e-02,0.486,0.49
-1.19699e-02,0.486,0.502
-1.19698e-02,0.486,0.482
-1.19696e-02,0.486,0.494
-1.19694e-02,0.494,0.482
-1.19693e-02,0.494,0.49
-1.19691e-02,0.494,0.486
-1.19690e-02,0.498,0.498
-1.19688e-02,0.498,0.49
-1.19686e-02,0.498,0.498
-1.19685e-02,0.498,0.494
-1.19683e-02,0.494,0.502
-1.19682e-02,0.494,0.494
-1.19680e-02,0.494,0.498
-1.19678e-02,0.494,0.49
-1.19677e-02,0.494,0.498
-1.19675e-02,0.494,0.49
-1.19674e-02,0.498,0.498
-1.19672e-02,0.498,0.49
-1.19670e-02,0.498,0.498
-1.19669e-02,0.498,0.494
-1.19667e-02,0.502,0.502
-1.19666e-02,0.498,0.494
-1.19664e-02,0.49,0.502
-1.19662e-02,0.486,0.49
-1.19661e-02,0.486,0.502
-1.19659e-02,0.49,0.482
-1.19658e-02,0.486,0.498
-1.19656e-02,0.486,0.482
-1.19654e-02,0.486,0.49
-1.19653e-02,0.482,0.482
-1.19651e-02,0.49,0.49
-1.19650e-02,0.49,0.482
-1.19648e-02,0.494,0.49
-1.19646e-02,0.498,0.486
-1.19645e-02,0.498,0.498
-1.19643e-02,0.498,0.49
-1.19642e-02,0.494,0.498
-1.19640e-02,0.498,0.49
-1.19638e-02,0.498,0.498
-1.19637e-02,0.502,0.49
-1.19635e-02,0.498,0.502
-1.19634e-02,0.498,0.494
-1.19632e-02,0.494,0.502
-1.19630e-02,0.494,0.49
-1.19629e-02,0.49,0.502
-1.19627e-02,0.486,0.486
-1.19626e-02,0.486,0.498
-1.19624e-02,0.494,0.482
-1.19622e-02,0.494,0.494
-1.19621e-02,0.494,0.486
-1.19619e-02,0.494,0.494
-1.19618e-02,0.498,0.49
-1.19616e-02,0.494,0.498
-1.19614e-02,0.494,0.49
-1.19613e-02,0.49,0.498
-1.19611e-02,0.49,0.486
-1.19610e-02,0.494,0.498
-1.19608e-02,0.49,0.486
-1.19606e-02,0.49,0.494
-1.19605e-02,0.486,0.482
-1.19603e-02,0.482,0.494
-1.19602e-02,0.486,0.478
-1.19600e-02,0.49,0.49
-1.19598e-02,0.49,0.478
-1.19597e-02,0.498,0.49
-1.19595e-02,0.498,0.486
-1.19594e-02,0.498,0.498
-1.19592e-02,0.498,0.49
-1.19590e-02,0.494,0.502
-1.19589e-02,0.498,0.494
-1.19587e-02,0.502,0.502
-1.19586e-02,0.506,0.494
-1.19584e-02,0.502,0.502
-1.19582e-02,0.502,0.498
-1.19581e-02,0.502,0.51
-1.19579e-02,0.498,0.498
-1.19578e-02,0.494,0.506
-1.19576e-02,0.494,0.494
-1.19574e-02,0.498,0.502
-1.19573e-02,0.498,0.49
-1.19571e-02,0.502,0.498
-1.19570e-02,0.502,0.494
-1.19568e-02,0.502,0.502
-1.19566e-02,0.498,0.498
-1.19565e-02,0.494,0.506
-1.19563e-02,0.494,0.494
-1.19562e-02,0.498,0.502
-1.19560e-02,0.494,0.49
-1.19558e-02,0.498,0.498
-1.19557e-02,0.494,0.494
-1.19555e-02,0.49,0.502
-1.19554e-02,0.486,0.49
-1.19552e-02,0.478,0.502
-1.19550e-02,0.478,0.478
-1.19549e-02,0.474,0.494
-1.19547e-02,0.478,0.474
-1.19546e-02,0.482,0.482
-1.19544e-02,0.49,0.474
-1.19542e-02,0.49,0.486
-1.19541e-02,0.49,0.478
-1.19539e-02,0.486,0.494
-1.19538e-02,0.486,0.486
-1.19536e-02,0.486,0.494
-1.19534e-02,0.486,0.482
-1.19533e-02,0.49,0.49
-1.19531e-02,0.486,0.482
-1.19530e-02,0.49,0.49
-1.19528e-02,0.49,0.482
-1.19526e-02,0.49,0.49
-1.19525e-02,0.486,0.482
-1.19523e-02,0.49,0.49
-1.19522e-02,0.49,0.486
-1.19520e-02,0.49,0.49
-1.19518e-02,0.494,0.486
