calculations/sodium-absorption/srs_average/cursor.csv

Model,DPO2024B
Firmware Version,1.52

Point Format,Y
Horizontal Units,S
Horizontal Scale,0.002
Sample Interval,1.6e-07
Filter Frequency,2e+08
Record Length,125000
Gating,41.799200% to 58.00%
Probe Attenuation,1
Vertical Units,V
Vertical Offset,0
Vertical Scale,0.1
Label,
TIME,CH1
-2.72016e-03,0.0897031
-2.72000e-03,0.0895781
-2.71984e-03,0.0893594
-2.71968e-03,0.0896406
-2.71952e-03,0.0895
-2.71936e-03,0.089625
-2.71920e-03,0.0894688
-2.71904e-03,0.0895938
-2.71888e-03,0.0897188
-2.71872e-03,0.0896094
-2.71856e-03,0.0894688
-2.71840e-03,0.0896406
-2.71824e-03,0.0895469
-2.71808e-03,0.0899844
-2.71792e-03,0.0896875
-2.71776e-03,0.0896406
-2.71760e-03,0.0896719
-2.71744e-03,0.0897031
-2.71728e-03,0.0895781
-2.71712e-03,0.0895625
-2.71696e-03,0.0895313
-2.71680e-03,0.0895938
-2.71664e-03,0.0895781
-2.71648e-03,0.0894219
-2.71632e-03,0.0896406
-2.71616e-03,0.0895625
-2.71600e-03,0.089875
-2.71584e-03,0.0894219
-2.71568e-03,0.0896875
-2.71552e-03,0.0899844
-2.71536e-03,0.08975
-2.71520e-03,0.08975
-2.71504e-03,0.0902188
-2.71488e-03,0.0899375
-2.71472e-03,0.0895156
-2.71456e-03,0.0896406
-2.71440e-03,0.0896094
-2.71424e-03,0.0898438
-2.71408e-03,0.0894375
-2.71392e-03,0.0895469
-2.71376e-03,0.0895156
-2.71360e-03,0.0900156
-2.71344e-03,0.0895
-2.71328e-03,0.08975
-2.71312e-03,0.0899063
-2.71296e-03,0.0897031
-2.71280e-03,0.0897344
-2.71264e-03,0.0900469
-2.71248e-03,0.0900156
-2.71232e-03,0.0898281
-2.71216e-03,0.0898125
-2.71200e-03,0.08975
-2.71184e-03,0.0897656
-2.71168e-03,0.0898594
-2.71152e-03,0.0897969
-2.71136e-03,0.0902656
-2.71120e-03,0.0899063
-2.71104e-03,0.0899375
-2.71088e-03,0.0901094
-2.71072e-03,0.0900781
-2.71056e-03,0.0901563
-2.71040e-03,0.09
-2.71024e-03,0.0897188
-2.71008e-03,0.0895625
-2.70992e-03,0.0900625
-2.70976e-03,0.0897813
-2.70960e-03,0.0897344
-2.70944e-03,0.0901406
-2.70928e-03,0.0900469
-2.70912e-03,0.0899063
-2.70896e-03,0.0901719
-2.70880e-03,0.0897344
-2.70864e-03,0.0899063
-2.70848e-03,0.0900313
-2.70832e-03,0.0897031
-2.70816e-03,0.0897969
-2.70800e-03,0.0899844
-2.70784e-03,0.0900313
-2.70768e-03,0.09
-2.70752e-03,0.0899219
-2.70736e-03,0.0900625
-2.70720e-03,0.09
-2.70704e-03,0.0900781
-2.70688e-03,0.0899375
-2.70672e-03,0.0899688
-2.70656e-03,0.089875
-2.70640e-03,0.0896563
-2.70624e-03,0.0899375
-2.70608e-03,0.0900313
-2.70592e-03,0.0898594
-2.70576e-03,0.0900469
-2.70560e-03,0.0901563
-2.70544e-03,0.0902813
-2.70528e-03,0.0901406
-2.70512e-03,0.0898906
-2.70496e-03,0.0900781
-2.70480e-03,0.0898281
-2.70464e-03,0.0899688
-2.70448e-03,0.09
-2.70432e-03,0.0905156
-2.70416e-03,0.0899219
-2.70400e-03,0.0906406
-2.70384e-03,0.090625
-2.70368e-03,0.0903906
-2.70352e-03,0.0903281
-2.70336e-03,0.0906094
-2.70320e-03,0.0901563
-2.70304e-03,0.0904219
-2.70288e-03,0.0905156
-2.70272e-03,0.0905313
-2.70256e-03,0.0901563
-2.70240e-03,0.0903125
-2.70224e-03,0.0903594
-2.70208e-03,0.0904531
-2.70192e-03,0.0904063
-2.70176e-03,0.0905
-2.70160e-03,0.0904063
-2.70144e-03,0.0907188
-2.70128e-03,0.0904375
-2.70112e-03,0.0903125
-2.70096e-03,0.0901563
-2.70080e-03,0.0901406
-2.70064e-03,0.089875
-2.70048e-03,0.0903125
-2.70032e-03,0.0901406
-2.70016e-03,0.0900938
-2.70000e-03,0.0903906
-2.69984e-03,0.0901563
-2.69968e-03,0.0904844
-2.69952e-03,0.0904688
-2.69936e-03,0.0903906
-2.69920e-03,0.0903125
-2.69904e-03,0.0905469
-2.69888e-03,0.0904688
-2.69872e-03,0.0904531
-2.69856e-03,0.0905781
-2.69840e-03,0.0904844
-2.69824e-03,0.0903594
-2.69808e-03,0.0907344
-2.69792e-03,0.0904844
-2.69776e-03,0.0904063
-2.69760e-03,0.090625
-2.69744e-03,0.090625
-2.69728e-03,0.0904219
-2.69712e-03,0.0904063
-2.69696e-03,0.0906094
-2.69680e-03,0.09025
-2.69664e-03,0.0904219
-2.69648e-03,0.0906563
-2.69632e-03,0.0901875
-2.69616e-03,0.0903906
-2.69600e-03,0.0902813
-2.69584e-03,0.0906875
-2.69568e-03,0.0908125
-2.69552e-03,0.0905625
-2.69536e-03,0.0904844
-2.69520e-03,0.0904531
-2.69504e-03,0.0904063
-2.69488e-03,0.0905781
-2.69472e-03,0.0903125
-2.69456e-03,0.0904375
-2.69440e-03,0.0902969
-2.69424e-03,0.0905469
-2.69408e-03,0.0909375
-2.69392e-03,0.0905313
-2.69376e-03,0.0908438
-2.69360e-03,0.0905938
-2.69344e-03,0.0902813
-2.69328e-03,0.090875
-2.69312e-03,0.0905313
-2.69296e-03,0.0903281
-2.69280e-03,0.0904688
-2.69264e-03,0.0904688
-2.69248e-03,0.0904688
-2.69232e-03,0.0905156
-2.69216e-03,0.0906719
-2.69200e-03,0.0907969
-2.69184e-03,0.0904375
-2.69168e-03,0.0908438
-2.69152e-03,0.0905313
-2.69136e-03,0.0904688
-2.69120e-03,0.09075
-2.69104e-03,0.0906719
-2.69088e-03,0.0909531
-2.69072e-03,0.0909531
-2.69056e-03,0.091
-2.69040e-03,0.0911406
-2.69024e-03,0.091
-2.69008e-03,0.0907813
-2.68992e-03,0.0910469
-2.68976e-03,0.0909688
-2.68960e-03,0.0908281
-2.68944e-03,0.0910625
-2.68928e-03,0.0909375
-2.68912e-03,0.0909063
-2.68896e-03,0.0904844
-2.68880e-03,0.0905781
-2.68864e-03,0.0909063
-2.68848e-03,0.090625
-2.68832e-03,0.0907344
-2.68816e-03,0.0902656
-2.68800e-03,0.0903906
-2.68784e-03,0.0902188
-2.68768e-03,0.0905781
-2.68752e-03,0.0901406
-2.68736e-03,0.0904844
-2.68720e-03,0.0906563
-2.68704e-03,0.0905781
-2.68688e-03,0.0907031
-2.68672e-03,0.0907031
-2.68656e-03,0.091
-2.68640e-03,0.0909531
-2.68624e-03,0.0910781
-2.68608e-03,0.0912188
-2.68592e-03,0.0910938
-2.68576e-03,0.0907031
-2.68560e-03,0.0907031
-2.68544e-03,0.0910156
-2.68528e-03,0.0908281
-2.68512e-03,0.0910156
-2.68496e-03,0.0910156
-2.68480e-03,0.0913125
-2.68464e-03,0.0911406
-2.68448e-03,0.0911719
-2.68432e-03,0.0912188
-2.68416e-03,0.0912031
-2.68400e-03,0.0910781
-2.68384e-03,0.0912188
-2.68368e-03,0.0911719
-2.68352e-03,0.0910313
-2.68336e-03,0.0908125
-2.68320e-03,0.091
-2.68304e-03,0.0910313
-2.68288e-03,0.0908281
-2.68272e-03,0.0910156
-2.68256e-03,0.0909844
-2.68240e-03,0.0909063
-2.68224e-03,0.0909063
-2.68208e-03,0.0909688
-2.68192e-03,0.0909531
-2.68176e-03,0.0910469
-2.68160e-03,0.0910156
-2.68144e-03,0.0912344
-2.68128e-03,0.0910469
-2.68112e-03,0.0911719
-2.68096e-03,0.091
-2.68080e-03,0.0911094
-2.68064e-03,0.0910313
-2.68048e-03,0.0910156
-2.68032e-03,0.091
-2.68016e-03,0.09125
-2.68000e-03,0.0911875
-2.67984e-03,0.091
-2.67968e-03,0.0912813
-2.67952e-03,0.0909375
-2.67936e-03,0.0911719
-2.67920e-03,0.0910781
-2.67904e-03,0.0908281
-2.67888e-03,0.09075
-2.67872e-03,0.091125
-2.67856e-03,0.09125
-2.67840e-03,0.091125
-2.67824e-03,0.0913438
-2.67808e-03,0.091375
-2.67792e-03,0.091
-2.67776e-03,0.0911719
-2.67760e-03,0.0910469
-2.67744e-03,0.0910313
-2.67728e-03,0.09125
-2.67712e-03,0.0913594
-2.67696e-03,0.0911094
-2.67680e-03,0.0913281
-2.67664e-03,0.0911563
-2.67648e-03,0.0912813
-2.67632e-03,0.0915469
-2.67616e-03,0.0915313
-2.67600e-03,0.0915469
-2.67584e-03,0.0914063
-2.67568e-03,0.0912188
-2.67552e-03,0.0915
-2.67536e-03,0.0914531
-2.67520e-03,0.0915156
-2.67504e-03,0.0910625
-2.67488e-03,0.0915156
-2.67472e-03,0.0911875
-2.67456e-03,0.091625
-2.67440e-03,0.0917188
-2.67424e-03,0.0911094
-2.67408e-03,0.0916875
-2.67392e-03,0.0916406
-2.67376e-03,0.0916563
-2.67360e-03,0.0913594
-2.67344e-03,0.0910781
-2.67328e-03,0.0912188
-2.67312e-03,0.0912344
-2.67296e-03,0.0911406
-2.67280e-03,0.0911875
-2.67264e-03,0.0911094
-2.67248e-03,0.091125
-2.67232e-03,0.0910313
-2.67216e-03,0.0910625
-2.67200e-03,0.0912813
-2.67184e-03,0.0913438
-2.67168e-03,0.0915781
-2.67152e-03,0.0916406
-2.67136e-03,0.091625
-2.67120e-03,0.0914531
-2.67104e-03,0.0912188
-2.67088e-03,0.0913438
-2.67072e-03,0.091375
-2.67056e-03,0.0914531
-2.67040e-03,0.0910781
-2.67024e-03,0.0917031
-2.67008e-03,0.0916875
-2.66992e-03,0.0915938
-2.66976e-03,0.0912188
-2.66960e-03,0.0911719
-2.66944e-03,0.091375
-2.66928e-03,0.091625
-2.66912e-03,0.0912656
-2.66896e-03,0.0918594
-2.66880e-03,0.0916406
-2.66864e-03,0.0914375
-2.66848e-03,0.0917188
-2.66832e-03,0.0917969
-2.66816e-03,0.0913125
-2.66800e-03,0.0913125
-2.66784e-03,0.091375
-2.66768e-03,0.0916563
-2.66752e-03,0.0915938
-2.66736e-03,0.0914688
-2.66720e-03,0.0919688
-2.66704e-03,0.0917969
-2.66688e-03,0.0920469
-2.66672e-03,0.0920938
-2.66656e-03,0.0921094
-2.66640e-03,0.0919844
-2.66624e-03,0.0918594
-2.66608e-03,0.0920313
-2.66592e-03,0.0917969
-2.66576e-03,0.092
-2.66560e-03,0.0919531
-2.66544e-03,0.0917344
-2.66528e-03,0.0917031
-2.66512e-03,0.09175
-2.66496e-03,0.0921563
-2.66480e-03,0.0919063
-2.66464e-03,0.091625
-2.66448e-03,0.0920156
-2.66432e-03,0.0916719
-2.66416e-03,0.0916719
-2.66400e-03,0.0916406
-2.66384e-03,0.0915625
-2.66368e-03,0.0914063
-2.66352e-03,0.0917969
-2.66336e-03,0.0917813
-2.66320e-03,0.0914219
-2.66304e-03,0.0918281
-2.66288e-03,0.0918906
-2.66272e-03,0.0915938
-2.66256e-03,0.0919844
-2.66240e-03,0.0919531
-2.66224e-03,0.0917188
-2.66208e-03,0.0919063
-2.66192e-03,0.092
-2.66176e-03,0.0918906
-2.66160e-03,0.0920156
-2.66144e-03,0.0917344
-2.66128e-03,0.0919219
-2.66112e-03,0.0919063
-2.66096e-03,0.0918906
-2.66080e-03,0.0919688
-2.66064e-03,0.0918594
-2.66048e-03,0.0919844
-2.66032e-03,0.0920156
-2.66016e-03,0.0917344
-2.66000e-03,0.0917188
-2.65984e-03,0.0914063
-2.65968e-03,0.0917031
-2.65952e-03,0.0914844
-2.65936e-03,0.0919219
-2.65920e-03,0.09125
-2.65904e-03,0.0916719
-2.65888e-03,0.0920313
-2.65872e-03,0.092
-2.65856e-03,0.0920156
-2.65840e-03,0.092
-2.65824e-03,0.0919844
-2.65808e-03,0.092125
-2.65792e-03,0.0920938
-2.65776e-03,0.0920156
-2.65760e-03,0.0918594
-2.65744e-03,0.0922031
-2.65728e-03,0.0922344
-2.65712e-03,0.0921719
-2.65696e-03,0.0920625
-2.65680e-03,0.092125
-2.65664e-03,0.0919844
-2.65648e-03,0.0920781
-2.65632e-03,0.0920625
-2.65616e-03,0.0920781
-2.65600e-03,0.0918906
-2.65584e-03,0.0919531
-2.65568e-03,0.0918906
-2.65552e-03,0.0921563
-2.65536e-03,0.0919688
-2.65520e-03,0.0919063
-2.65504e-03,0.091875
-2.65488e-03,0.0919375
-2.65472e-03,0.0920938
-2.65456e-03,0.091875
-2.65440e-03,0.0922344
-2.65424e-03,0.0923281
-2.65408e-03,0.0921406
-2.65392e-03,0.0919688
-2.65376e-03,0.0919844
-2.65360e-03,0.092375
-2.65344e-03,0.0921563
-2.65328e-03,0.0920938
-2.65312e-03,0.0919531
-2.65296e-03,0.0918438
-2.65280e-03,0.09225
-2.65264e-03,0.0920625
-2.65248e-03,0.0921563
-2.65232e-03,0.0921719
-2.65216e-03,0.0923906
-2.65200e-03,0.0921563
-2.65184e-03,0.0920625
-2.65168e-03,0.0920781
-2.65152e-03,0.0924375
-2.65136e-03,0.0925
-2.65120e-03,0.0922188
-2.65104e-03,0.0923281
-2.65088e-03,0.0920313
-2.65072e-03,0.0921875
-2.65056e-03,0.092375
-2.65040e-03,0.0922656
-2.65024e-03,0.0925625
-2.65008e-03,0.0924375
-2.64992e-03,0.0924375
-2.64976e-03,0.0925625
-2.64960e-03,0.092375
-2.64944e-03,0.0924063
-2.64928e-03,0.09225
-2.64912e-03,0.0924219
-2.64896e-03,0.0921563
-2.64880e-03,0.0924219
-2.64864e-03,0.0926719
-2.64848e-03,0.0925469
-2.64832e-03,0.0929688
-2.64816e-03,0.092625
-2.64800e-03,0.0926875
-2.64784e-03,0.0924844
-2.64768e-03,0.0924063
-2.64752e-03,0.0923281
-2.64736e-03,0.092125
-2.64720e-03,0.0920625
-2.64704e-03,0.0925781
-2.64688e-03,0.092625
-2.64672e-03,0.0922031
-2.64656e-03,0.0925938
-2.64640e-03,0.0922969
-2.64624e-03,0.092625
-2.64608e-03,0.0925938
-2.64592e-03,0.0924531
-2.64576e-03,0.0923125
-2.64560e-03,0.0922813
-2.64544e-03,0.0918438
-2.64528e-03,0.0924219
-2.64512e-03,0.0921094
-2.64496e-03,0.0922813
-2.64480e-03,0.0920938
-2.64464e-03,0.0925156
-2.64448e-03,0.0924688
-2.64432e-03,0.092375
-2.64416e-03,0.0929063
-2.64400e-03,0.0925469
-2.64384e-03,0.0925625
-2.64368e-03,0.0925625
-2.64352e-03,0.0926875
-2.64336e-03,0.092625
-2.64320e-03,0.0925781
-2.64304e-03,0.0923438
-2.64288e-03,0.0924531
-2.64272e-03,0.0928906
-2.64256e-03,0.0930156
-2.64240e-03,0.0930469
-2.64224e-03,0.0925781
-2.64208e-03,0.0929531
-2.64192e-03,0.0927031
-2.64176e-03,0.0930938
-2.64160e-03,0.0926719
-2.64144e-03,0.0929688
-2.64128e-03,0.0927656
-2.64112e-03,0.0929531
-2.64096e-03,0.0926563
-2.64080e-03,0.0927813
-2.64064e-03,0.0928906
-2.64048e-03,0.0927813
-2.64032e-03,0.0925625
-2.64016e-03,0.0924219
-2.64000e-03,0.0925156
-2.63984e-03,0.0925156
-2.63968e-03,0.0927813
-2.63952e-03,0.0927031
-2.63936e-03,0.0926563
-2.63920e-03,0.092875
-2.63904e-03,0.0929375
-2.63888e-03,0.0930469
-2.63872e-03,0.093
-2.63856e-03,0.0928906
-2.63840e-03,0.0929531
-2.63824e-03,0.0926406
-2.63808e-03,0.09275
-2.63792e-03,0.09275
-2.63776e-03,0.09275
-2.63760e-03,0.0927031
-2.63744e-03,0.0929688
-2.63728e-03,0.0927656
-2.63712e-03,0.0931094
-2.63696e-03,0.0929375
-2.63680e-03,0.0931563
-2.63664e-03,0.0930469
-2.63648e-03,0.0927813
-2.63632e-03,0.0931094
-2.63616e-03,0.0930469
-2.63600e-03,0.0925938
-2.63584e-03,0.0928594
-2.63568e-03,0.0925781
-2.63552e-03,0.0924375
-2.63536e-03,0.0927031
-2.63520e-03,0.0926875
-2.63504e-03,0.0929219
-2.63488e-03,0.0927969
-2.63472e-03,0.0929375
-2.63456e-03,0.0929063
-2.63440e-03,0.0931094
-2.63424e-03,0.0929063
-2.63408e-03,0.0930625
-2.63392e-03,0.0930469
-2.63376e-03,0.0931094
-2.63360e-03,0.0928906
-2.63344e-03,0.0929688
-2.63328e-03,0.0933125
-2.63312e-03,0.0933906
-2.63296e-03,0.0936094
-2.63280e-03,0.0931563
-2.63264e-03,0.093625
-2.63248e-03,0.0933594
-2.63232e-03,0.0933125
-2.63216e-03,0.0932813
-2.63200e-03,0.092875
-2.63184e-03,0.0930313
-2.63168e-03,0.0930781
-2.63152e-03,0.093125
-2.63136e-03,0.0931719
-2.63120e-03,0.0929531
-2.63104e-03,0.0928125
-2.63088e-03,0.09275
-2.63072e-03,0.0926719
-2.63056e-03,0.0930938
-2.63040e-03,0.0929844
-2.63024e-03,0.0930938
-2.63008e-03,0.0930469
-2.62992e-03,0.0929531
-2.62976e-03,0.093
-2.62960e-03,0.0928281
-2.62944e-03,0.0930469
-2.62928e-03,0.0931719
-2.62912e-03,0.0927969
-2.62896e-03,0.0931094
-2.62880e-03,0.0933438
-2.62864e-03,0.0932344
-2.62848e-03,0.0933125
-2.62832e-03,0.0931406
-2.62816e-03,0.0934375
-2.62800e-03,0.0932969
-2.62784e-03,0.0930938
-2.62768e-03,0.0934063
-2.62752e-03,0.09325
-2.62736e-03,0.0934219
-2.62720e-03,0.0932969
-2.62704e-03,0.0932813
-2.62688e-03,0.0933125
-2.62672e-03,0.0937188
-2.62656e-03,0.0933906
-2.62640e-03,0.0933125
-2.62624e-03,0.0932188
-2.62608e-03,0.09325
-2.62592e-03,0.0930781
-2.62576e-03,0.0933281
-2.62560e-03,0.0932344
-2.62544e-03,0.0932344
-2.62528e-03,0.0934063
-2.62512e-03,0.0932813
-2.62496e-03,0.0930781
-2.62480e-03,0.0932188
-2.62464e-03,0.0934219
-2.62448e-03,0.0934063
-2.62432e-03,0.0932344
-2.62416e-03,0.0936406
-2.62400e-03,0.093375
-2.62384e-03,0.0935313
-2.62368e-03,0.0934219
-2.62352e-03,0.0934844
-2.62336e-03,0.0932656
-2.62320e-03,0.09325
-2.62304e-03,0.0933438
-2.62288e-03,0.0935156
-2.62272e-03,0.0935313
-2.62256e-03,0.0932656
-2.62240e-03,0.0932969
-2.62224e-03,0.0932188
-2.62208e-03,0.0935625
-2.62192e-03,0.0934688
-2.62176e-03,0.0935
-2.62160e-03,0.0935313
-2.62144e-03,0.0934063
-2.62128e-03,0.0933438
-2.62112e-03,0.0934219
-2.62096e-03,0.093125
-2.62080e-03,0.0931563
-2.62064e-03,0.0938438
-2.62048e-03,0.0934063
-2.62032e-03,0.0935938
-2.62016e-03,0.0936094
-2.62000e-03,0.0935469
-2.61984e-03,0.0937813
-2.61968e-03,0.0940313
-2.61952e-03,0.0939688
-2.61936e-03,0.0937656
-2.61920e-03,0.0935156
-2.61904e-03,0.0936094
-2.61888e-03,0.0934688
-2.61872e-03,0.0932813
-2.61856e-03,0.0935781
-2.61840e-03,0.093625
-2.61824e-03,0.0938125
-2.61808e-03,0.0939219
-2.61792e-03,0.0936875
-2.61776e-03,0.0939219
-2.61760e-03,0.0934375
-2.61744e-03,0.0939688
-2.61728e-03,0.093375
-2.61712e-03,0.0934375
-2.61696e-03,0.0939063
-2.61680e-03,0.0933906
-2.61664e-03,0.0934219
-2.61648e-03,0.0932031
-2.61632e-03,0.0935156
-2.61616e-03,0.0935781
-2.61600e-03,0.0939219
-2.61584e-03,0.0935469
-2.61568e-03,0.0942969
-2.61552e-03,0.0939219
-2.61536e-03,0.0940938
-2.61520e-03,0.0942656
-2.61504e-03,0.09425
-2.61488e-03,0.0944063
-2.61472e-03,0.0941563
-2.61456e-03,0.0942656
-2.61440e-03,0.0942188
-2.61424e-03,0.0938281
-2.61408e-03,0.0943906
-2.61392e-03,0.0942188
-2.61376e-03,0.0940469
-2.61360e-03,0.0940313
-2.61344e-03,0.0940156
-2.61328e-03,0.0936563
-2.61312e-03,0.0942188
-2.61296e-03,0.0937031
-2.61280e-03,0.0941094
-2.61264e-03,0.0939531
-2.61248e-03,0.0939375
-2.61232e-03,0.0938281
-2.61216e-03,0.0937969
-2.61200e-03,0.0940313
-2.61184e-03,0.0938281
-2.61168e-03,0.093875
-2.61152e-03,0.0942344
-2.61136e-03,0.0935
-2.61120e-03,0.0942656
-2.61104e-03,0.0937188
-2.61088e-03,0.0936406
-2.61072e-03,0.0939375
-2.61056e-03,0.0939688
-2.61040e-03,0.0939375
-2.61024e-03,0.0942656
-2.61008e-03,0.0938594
-2.60992e-03,0.094
-2.60976e-03,0.0940938
-2.60960e-03,0.0938438
-2.60944e-03,0.0936094
-2.60928e-03,0.0940625
-2.60912e-03,0.0940469
-2.60896e-03,0.0938438
-2.60880e-03,0.0940938
-2.60864e-03,0.0941406
-2.60848e-03,0.0939844
-2.60832e-03,0.0939844
-2.60816e-03,0.0940938
-2.60800e-03,0.0938281
-2.60784e-03,0.0937813
-2.60768e-03,0.0944063
-2.60752e-03,0.0941563
-2.60736e-03,0.0940781
-2.60720e-03,0.0947344
-2.60704e-03,0.094375
-2.60688e-03,0.0942969
-2.60672e-03,0.0944219
-2.60656e-03,0.0944219
-2.60640e-03,0.0941563
-2.60624e-03,0.0941563
-2.60608e-03,0.0944219
-2.60592e-03,0.0943906
-2.60576e-03,0.0945
-2.60560e-03,0.09425
-2.60544e-03,0.0945625
-2.60528e-03,0.0945156
-2.60512e-03,0.0944844
-2.60496e-03,0.0947188
-2.60480e-03,0.0944375
-2.60464e-03,0.0943281
-2.60448e-03,0.0945625
-2.60432e-03,0.0946563
-2.60416e-03,0.094625
-2.60400e-03,0.0943906
-2.60384e-03,0.0943594
-2.60368e-03,0.0948125
-2.60352e-03,0.0941875
-2.60336e-03,0.0942188
-2.60320e-03,0.0943594
-2.60304e-03,0.0945313
-2.60288e-03,0.0945
-2.60272e-03,0.0945938
-2.60256e-03,0.0945313
-2.60240e-03,0.094625
-2.60224e-03,0.0947656
-2.60208e-03,0.0947656
-2.60192e-03,0.0947188
-2.60176e-03,0.0945938
-2.60160e-03,0.0947031
-2.60144e-03,0.0946719
-2.60128e-03,0.0946094
-2.60112e-03,0.0950469
-2.60096e-03,0.0948281
-2.60080e-03,0.0947813
-2.60064e-03,0.0945938
-2.60048e-03,0.095
-2.60032e-03,0.0949063
-2.60016e-03,0.094625
-2.60000e-03,0.0946406
-2.59984e-03,0.0949688
-2.59968e-03,0.0946094
-2.59952e-03,0.0948906
-2.59936e-03,0.0949375
-2.59920e-03,0.0950469
-2.59904e-03,0.0950625
-2.59888e-03,0.0948125
-2.59872e-03,0.0949375
-2.59856e-03,0.0949531
-2.59840e-03,0.0947656
-2.59824e-03,0.0948906
-2.59808e-03,0.0949688
-2.59792e-03,0.094875
-2.59776e-03,0.0950938
-2.59760e-03,0.0949844
-2.59744e-03,0.0950625
-2.59728e-03,0.0949063
-2.59712e-03,0.0949531
-2.59696e-03,0.0950781
-2.59680e-03,0.0946875
-2.59664e-03,0.0946719
-2.59648e-03,0.0947031
-2.59632e-03,0.0949219
-2.59616e-03,0.0945938
-2.59600e-03,0.0950625
-2.59584e-03,0.0949844
-2.59568e-03,0.0951563
-2.59552e-03,0.0950781
-2.59536e-03,0.0949531
-2.59520e-03,0.09525
-2.59504e-03,0.0950625
-2.59488e-03,0.0950781
-2.59472e-03,0.0952031
-2.59456e-03,0.0951406
-2.59440e-03,0.0949688
-2.59424e-03,0.0951406
-2.59408e-03,0.0949844
-2.59392e-03,0.0950625
-2.59376e-03,0.0951719
-2.59360e-03,0.0947969
-2.59344e-03,0.0952188
-2.59328e-03,0.0952344
-2.59312e-03,0.0951875
-2.59296e-03,0.0951719
-2.59280e-03,0.0952656
-2.59264e-03,0.0952188
-2.59248e-03,0.0950156
-2.59232e-03,0.0950938
-2.59216e-03,0.0952031
-2.59200e-03,0.0950625
-2.59184e-03,0.0949219
-2.59168e-03,0.0949688
-2.59152e-03,0.0952031
-2.59136e-03,0.0951563
-2.59120e-03,0.0951094
-2.59104e-03,0.0952656
-2.59088e-03,0.0950156
-2.59072e-03,0.0951875
-2.59056e-03,0.0954375
-2.59040e-03,0.0954375
-2.59024e-03,0.0951875
-2.59008e-03,0.0952188
-2.58992e-03,0.095
-2.58976e-03,0.0948125
-2.58960e-03,0.0949688
-2.58944e-03,0.0951094
-2.58928e-03,0.0950313
-2.58912e-03,0.0952656
-2.58896e-03,0.0954219
-2.58880e-03,0.0952031
-2.58864e-03,0.0955781
-2.58848e-03,0.0953438
-2.58832e-03,0.0952813
-2.58816e-03,0.0954531
-2.58800e-03,0.0952344
-2.58784e-03,0.0955625
-2.58768e-03,0.0954219
-2.58752e-03,0.0955938
-2.58736e-03,0.0955156
-2.58720e-03,0.0955938
-2.58704e-03,0.0955
-2.58688e-03,0.0958594
-2.58672e-03,0.0958281
-2.58656e-03,0.0955156
-2.58640e-03,0.0952969
-2.58624e-03,0.0952969
-2.58608e-03,0.0954375
-2.58592e-03,0.0954531
-2.58576e-03,0.0954688
-2.58560e-03,0.0955156
-2.58544e-03,0.0952188
-2.58528e-03,0.0957969
-2.58512e-03,0.0958438
-2.58496e-03,0.0956094
-2.58480e-03,0.0954531
-2.58464e-03,0.0954844
-2.58448e-03,0.0956563
-2.58432e-03,0.095375
-2.58416e-03,0.0955313
-2.58400e-03,0.095375
-2.58384e-03,0.0955156
-2.58368e-03,0.095625
-2.58352e-03,0.0955156
-2.58336e-03,0.0953906
-2.58320e-03,0.0954531
-2.58304e-03,0.0956719
-2.58288e-03,0.096
-2.58272e-03,0.0957813
-2.58256e-03,0.0957813
-2.58240e-03,0.0953906
-2.58224e-03,0.0955313
-2.58208e-03,0.0955781
-2.58192e-03,0.0955781
-2.58176e-03,0.0955625
