calculations/sodium-absorption/srs_average/screen.csv

Model,DPO2024B
Firmware Version,1.52

Point Format,Y
Horizontal Units,S
Horizontal Scale,0.002
Sample Interval,1.6e-07
Filter Frequency,2e+08
Record Length,125000
Gating,0.0% to 100.0%
Probe Attenuation,1
Vertical Units,V
Vertical Offset,0
Vertical Scale,0.1
Label,
TIME,CH1
-1.10800e-02,0.471031
-1.10798e-02,0.470953
-1.10797e-02,0.470797
-1.10795e-02,0.470719
-1.10794e-02,0.470547
-1.10792e-02,0.470703
-1.10790e-02,0.470828
-1.10789e-02,0.471391
-1.10787e-02,0.471031
-1.10786e-02,0.471219
-1.10784e-02,0.471719
-1.10782e-02,0.472
-1.10781e-02,0.472406
-1.10779e-02,0.472688
-1.10778e-02,0.472469
-1.10776e-02,0.472453
-1.10774e-02,0.472391
-1.10773e-02,0.472297
-1.10771e-02,0.472125
-1.10770e-02,0.472047
-1.10768e-02,0.472047
-1.10766e-02,0.471734
-1.10765e-02,0.471922
-1.10763e-02,0.471609
-1.10762e-02,0.471625
-1.10760e-02,0.471219
-1.10758e-02,0.471016
-1.10757e-02,0.471156
-1.10755e-02,0.471281
-1.10754e-02,0.471109
-1.10752e-02,0.471313
-1.10750e-02,0.471203
-1.10749e-02,0.471406
-1.10747e-02,0.471188
-1.10746e-02,0.471516
-1.10744e-02,0.471922
-1.10742e-02,0.472188
-1.10741e-02,0.472188
-1.10739e-02,0.471938
-1.10738e-02,0.471516
-1.10736e-02,0.472
-1.10734e-02,0.472031
-1.10733e-02,0.472141
-1.10731e-02,0.472766
-1.10730e-02,0.472891
-1.10728e-02,0.473641
-1.10726e-02,0.473797
-1.10725e-02,0.473891
-1.10723e-02,0.473516
-1.10722e-02,0.473094
-1.10720e-02,0.473016
-1.10718e-02,0.472469
-1.10717e-02,0.472422
-1.10715e-02,0.471938
-1.10714e-02,0.471734
-1.10712e-02,0.471547
-1.10710e-02,0.471281
-1.10709e-02,0.471313
-1.10707e-02,0.471313
-1.10706e-02,0.471594
-1.10704e-02,0.472047
-1.10702e-02,0.471922
-1.10701e-02,0.471672
-1.10699e-02,0.471313
-1.10698e-02,0.471078
-1.10696e-02,0.470641
-1.10694e-02,0.470766
-1.10693e-02,0.470688
-1.10691e-02,0.471234
-1.10690e-02,0.471656
-1.10688e-02,0.471859
-1.10686e-02,0.472344
-1.10685e-02,0.472313
-1.10683e-02,0.472344
-1.10682e-02,0.472203
-1.10680e-02,0.472016
-1.10678e-02,0.47225
-1.10677e-02,0.472516
-1.10675e-02,0.472188
-1.10674e-02,0.471984
-1.10672e-02,0.471609
-1.10670e-02,0.471406
-1.10669e-02,0.471234
-1.10667e-02,0.471609
-1.10666e-02,0.471719
-1.10664e-02,0.472156
-1.10662e-02,0.472703
-1.10661e-02,0.472656
-1.10659e-02,0.472781
-1.10658e-02,0.472484
-1.10656e-02,0.472906
-1.10654e-02,0.472594
-1.10653e-02,0.472578
-1.10651e-02,0.472422
-1.10650e-02,0.472219
-1.10648e-02,0.471938
-1.10646e-02,0.471641
-1.10645e-02,0.471313
-1.10643e-02,0.471703
-1.10642e-02,0.471469
-1.10640e-02,0.471688
-1.10638e-02,0.472125
-1.10637e-02,0.472031
-1.10635e-02,0.471969
-1.10634e-02,0.472047
-1.10632e-02,0.472078
-1.10630e-02,0.471766
-1.10629e-02,0.471891
-1.10627e-02,0.472375
-1.10626e-02,0.471703
-1.10624e-02,0.47225
-1.10622e-02,0.472047
-1.10621e-02,0.472016
-1.10619e-02,0.471953
-1.10618e-02,0.472344
-1.10616e-02,0.472797
-1.10614e-02,0.472516
-1.10613e-02,0.472578
-1.10611e-02,0.472188
-1.10610e-02,0.472016
-1.10608e-02,0.471734
-1.10606e-02,0.471625
-1.10605e-02,0.471766
-1.10603e-02,0.471875
-1.10602e-02,0.471734
-1.10600e-02,0.472
-1.10598e-02,0.472156
-1.10597e-02,0.472125
-1.10595e-02,0.472203
-1.10594e-02,0.471813
-1.10592e-02,0.472031
-1.10590e-02,0.471531
-1.10589e-02,0.472203
-1.10587e-02,0.472172
-1.10586e-02,0.472266
-1.10584e-02,0.47225
-1.10582e-02,0.471922
-1.10581e-02,0.472172
-1.10579e-02,0.472281
-1.10578e-02,0.472406
-1.10576e-02,0.472656
-1.10574e-02,0.473063
-1.10573e-02,0.473594
-1.10571e-02,0.473844
-1.10570e-02,0.47375
-1.10568e-02,0.47425
-1.10566e-02,0.474
-1.10565e-02,0.474156
-1.10563e-02,0.473938
-1.10562e-02,0.473266
-1.10560e-02,0.473219
-1.10558e-02,0.473031
-1.10557e-02,0.473125
-1.10555e-02,0.472656
-1.10554e-02,0.47275
-1.10552e-02,0.472391
-1.10550e-02,0.472422
-1.10549e-02,0.472719
-1.10547e-02,0.47275
-1.10546e-02,0.472719
-1.10544e-02,0.472875
-1.10542e-02,0.472969
-1.10541e-02,0.473063
-1.10539e-02,0.472844
-1.10538e-02,0.472484
-1.10536e-02,0.472875
-1.10534e-02,0.472141
-1.10533e-02,0.472906
-1.10531e-02,0.472484
-1.10530e-02,0.472656
-1.10528e-02,0.472563
-1.10526e-02,0.472672
-1.10525e-02,0.472266
-1.10523e-02,0.472031
-1.10522e-02,0.472219
-1.10520e-02,0.472594
-1.10518e-02,0.472797
-1.10517e-02,0.472891
-1.10515e-02,0.472953
-1.10514e-02,0.472938
-1.10512e-02,0.473172
-1.10510e-02,0.472797
-1.10509e-02,0.472656
-1.10507e-02,0.472594
-1.10506e-02,0.472391
-1.10504e-02,0.472484
-1.10502e-02,0.472422
-1.10501e-02,0.472891
-1.10499e-02,0.473047
-1.10498e-02,0.473141
-1.10496e-02,0.47325
-1.10494e-02,0.473328
-1.10493e-02,0.473625
-1.10491e-02,0.473703
-1.10490e-02,0.473656
-1.10488e-02,0.473578
-1.10486e-02,0.473328
-1.10485e-02,0.473594
-1.10483e-02,0.473359
-1.10482e-02,0.473359
-1.10480e-02,0.473563
-1.10478e-02,0.473
-1.10477e-02,0.472516
-1.10475e-02,0.472313
-1.10474e-02,0.472078
-1.10472e-02,0.472125
-1.10470e-02,0.472141
-1.10469e-02,0.47225
-1.10467e-02,0.472375
-1.10466e-02,0.47225
-1.10464e-02,0.472359
-1.10462e-02,0.471953
-1.10461e-02,0.472281
-1.10459e-02,0.471734
-1.10458e-02,0.472016
-1.10456e-02,0.472484
-1.10454e-02,0.472672
-1.10453e-02,0.472844
-1.10451e-02,0.472703
-1.10450e-02,0.472891
-1.10448e-02,0.472422
-1.10446e-02,0.473016
-1.10445e-02,0.472844
-1.10443e-02,0.473172
-1.10442e-02,0.473203
-1.10440e-02,0.473516
-1.10438e-02,0.473453
-1.10437e-02,0.472969
-1.10435e-02,0.473328
-1.10434e-02,0.473094
-1.10432e-02,0.473047
-1.10430e-02,0.473141
-1.10429e-02,0.472563
-1.10427e-02,0.472609
-1.10426e-02,0.472156
-1.10424e-02,0.471969
-1.10422e-02,0.472063
-1.10421e-02,0.472109
-1.10419e-02,0.471938
-1.10418e-02,0.472047
-1.10416e-02,0.472281
-1.10414e-02,0.472141
-1.10413e-02,0.472344
-1.10411e-02,0.472281
-1.10410e-02,0.472422
-1.10408e-02,0.4725
-1.10406e-02,0.472484
-1.10405e-02,0.472984
-1.10403e-02,0.472516
-1.10402e-02,0.472859
-1.10400e-02,0.47275
-1.10398e-02,0.473156
-1.10397e-02,0.473328
-1.10395e-02,0.473297
-1.10394e-02,0.473266
-1.10392e-02,0.473047
-1.10390e-02,0.473297
-1.10389e-02,0.472922
-1.10387e-02,0.472922
-1.10386e-02,0.472688
-1.10384e-02,0.473078
-1.10382e-02,0.473328
-1.10381e-02,0.473266
-1.10379e-02,0.473
-1.10378e-02,0.473016
-1.10376e-02,0.473391
-1.10374e-02,0.47375
-1.10373e-02,0.473688
-1.10371e-02,0.473828
-1.10370e-02,0.473969
-1.10368e-02,0.473734
-1.10366e-02,0.473625
-1.10365e-02,0.474063
-1.10363e-02,0.473438
-1.10362e-02,0.473734
-1.10360e-02,0.473969
-1.10358e-02,0.474281
-1.10357e-02,0.47425
-1.10355e-02,0.474047
-1.10354e-02,0.474016
-1.10352e-02,0.473734
-1.10350e-02,0.473594
-1.10349e-02,0.473688
-1.10347e-02,0.473297
-1.10346e-02,0.473703
-1.10344e-02,0.473719
-1.10342e-02,0.473578
-1.10341e-02,0.473391
-1.10339e-02,0.473328
-1.10338e-02,0.473125
-1.10336e-02,0.473391
-1.10334e-02,0.473531
-1.10333e-02,0.473734
-1.10331e-02,0.47375
-1.10330e-02,0.473734
-1.10328e-02,0.473625
-1.10326e-02,0.473047
-1.10325e-02,0.472922
-1.10323e-02,0.472719
-1.10322e-02,0.472688
-1.10320e-02,0.472703
-1.10318e-02,0.473016
-1.10317e-02,0.473297
-1.10315e-02,0.473438
-1.10314e-02,0.473797
-1.10312e-02,0.473844
-1.10310e-02,0.473953
-1.10309e-02,0.473781
-1.10307e-02,0.473141
-1.10306e-02,0.473156
-1.10304e-02,0.473266
-1.10302e-02,0.473234
-1.10301e-02,0.473219
-1.10299e-02,0.473578
-1.10298e-02,0.473656
-1.10296e-02,0.473938
-1.10294e-02,0.474031
-1.10293e-02,0.474188
-1.10291e-02,0.474234
-1.10290e-02,0.474266
-1.10288e-02,0.473906
-1.10286e-02,0.473484
-1.10285e-02,0.47375
-1.10283e-02,0.473547
-1.10282e-02,0.473531
-1.10280e-02,0.473719
-1.10278e-02,0.474047
-1.10277e-02,0.473922
-1.10275e-02,0.473953
-1.10274e-02,0.474313
-1.10272e-02,0.474031
-1.10270e-02,0.473828
-1.10269e-02,0.473828
-1.10267e-02,0.473422
-1.10266e-02,0.473656
-1.10264e-02,0.473813
-1.10262e-02,0.474094
-1.10261e-02,0.474531
-1.10259e-02,0.474313
-1.10258e-02,0.474609
-1.10256e-02,0.474469
-1.10254e-02,0.474313
-1.10253e-02,0.474406
-1.10251e-02,0.474094
-1.10250e-02,0.473922
-1.10248e-02,0.474094
-1.10246e-02,0.474203
-1.10245e-02,0.474109
-1.10243e-02,0.473984
-1.10242e-02,0.474188
-1.10240e-02,0.474094
-1.10238e-02,0.473938
-1.10237e-02,0.473297
-1.10235e-02,0.473531
-1.10234e-02,0.473438
-1.10232e-02,0.473078
-1.10230e-02,0.473266
-1.10229e-02,0.473563
-1.10227e-02,0.473594
-1.10226e-02,0.473797
-1.10224e-02,0.473797
-1.10222e-02,0.474406
-1.10221e-02,0.474641
-1.10219e-02,0.474688
-1.10218e-02,0.475188
-1.10216e-02,0.475125
-1.10214e-02,0.474828
-1.10213e-02,0.474438
-1.10211e-02,0.474172
-1.10210e-02,0.473563
-1.10208e-02,0.473938
-1.10206e-02,0.474
-1.10205e-02,0.474078
-1.10203e-02,0.474531
-1.10202e-02,0.474938
-1.10200e-02,0.474734
-1.10198e-02,0.474219
-1.10197e-02,0.474453
-1.10195e-02,0.474266
-1.10194e-02,0.473969
-1.10192e-02,0.473906
-1.10190e-02,0.473906
-1.10189e-02,0.473844
-1.10187e-02,0.473609
-1.10186e-02,0.473438
-1.10184e-02,0.473813
-1.10182e-02,0.473875
-1.10181e-02,0.474203
-1.10179e-02,0.474266
-1.10178e-02,0.474344
-1.10176e-02,0.474453
-1.10174e-02,0.474234
-1.10173e-02,0.474609
-1.10171e-02,0.474031
-1.10170e-02,0.473703
-1.10168e-02,0.473531
-1.10166e-02,0.473938
-1.10165e-02,0.474688
-1.10163e-02,0.474266
-1.10162e-02,0.474594
-1.10160e-02,0.474625
-1.10158e-02,0.474625
-1.10157e-02,0.47475
-1.10155e-02,0.474563
-1.10154e-02,0.474672
-1.10152e-02,0.474719
-1.10150e-02,0.474453
-1.10149e-02,0.474375
-1.10147e-02,0.474375
-1.10146e-02,0.474328
-1.10144e-02,0.474547
-1.10142e-02,0.474625
-1.10141e-02,0.4745
-1.10139e-02,0.475
-1.10138e-02,0.474938
-1.10136e-02,0.474797
-1.10134e-02,0.474859
-1.10133e-02,0.474922
-1.10131e-02,0.474734
-1.10130e-02,0.474828
-1.10128e-02,0.475484
-1.10126e-02,0.475438
-1.10125e-02,0.475234
-1.10123e-02,0.475156
-1.10122e-02,0.474609
-1.10120e-02,0.474688
-1.10118e-02,0.47475
-1.10117e-02,0.474969
-1.10115e-02,0.474813
-1.10114e-02,0.474875
-1.10112e-02,0.475063
-1.10110e-02,0.475047
-1.10109e-02,0.474813
-1.10107e-02,0.474844
-1.10106e-02,0.474672
-1.10104e-02,0.474719
-1.10102e-02,0.474578
-1.10101e-02,0.474656
-1.10099e-02,0.474609
-1.10098e-02,0.474828
-1.10096e-02,0.474922
-1.10094e-02,0.474922
-1.10093e-02,0.475313
-1.10091e-02,0.475078
-1.10090e-02,0.475422
-1.10088e-02,0.475781
-1.10086e-02,0.475688
-1.10085e-02,0.475609
-1.10083e-02,0.4755
-1.10082e-02,0.475547
-1.10080e-02,0.475219
-1.10078e-02,0.474828
-1.10077e-02,0.474922
-1.10075e-02,0.474906
-1.10074e-02,0.475
-1.10072e-02,0.475031
-1.10070e-02,0.474922
-1.10069e-02,0.475406
-1.10067e-02,0.474953
-1.10066e-02,0.474891
-1.10064e-02,0.474906
-1.10062e-02,0.474969
-1.10061e-02,0.475016
-1.10059e-02,0.474344
-1.10058e-02,0.4745
-1.10056e-02,0.474516
-1.10054e-02,0.474156
-1.10053e-02,0.474297
-1.10051e-02,0.473984
-1.10050e-02,0.474125
-1.10048e-02,0.474484
-1.10046e-02,0.474719
-1.10045e-02,0.475016
-1.10043e-02,0.475172
-1.10042e-02,0.475328
-1.10040e-02,0.475172
-1.10038e-02,0.474984
-1.10037e-02,0.474859
-1.10035e-02,0.474813
-1.10034e-02,0.474797
-1.10032e-02,0.474953
-1.10030e-02,0.474938
-1.10029e-02,0.475563
-1.10027e-02,0.475453
-1.10026e-02,0.476297
-1.10024e-02,0.476031
-1.10022e-02,0.476094
-1.10021e-02,0.476438
-1.10019e-02,0.475984
-1.10018e-02,0.476109
-1.10016e-02,0.476219
-1.10014e-02,0.475953
-1.10013e-02,0.476016
-1.10011e-02,0.475906
-1.10010e-02,0.475719
-1.10008e-02,0.475391
-1.10006e-02,0.475391
-1.10005e-02,0.475438
-1.10003e-02,0.475016
-1.10002e-02,0.475172
-1.10000e-02,0.475281
-1.09998e-02,0.475359
-1.09997e-02,0.475156
-1.09995e-02,0.475266
-1.09994e-02,0.475063
-1.09992e-02,0.474797
-1.09990e-02,0.475125
-1.09989e-02,0.474813
-1.09987e-02,0.474438
-1.09986e-02,0.474703
-1.09984e-02,0.475047
-1.09982e-02,0.474734
-1.09981e-02,0.475016
-1.09979e-02,0.475203
-1.09978e-02,0.475578
-1.09976e-02,0.476125
-1.09974e-02,0.476172
-1.09973e-02,0.476375
-1.09971e-02,0.476469
-1.09970e-02,0.476453
-1.09968e-02,0.476359
-1.09966e-02,0.475938
-1.09965e-02,0.475781
-1.09963e-02,0.475844
-1.09962e-02,0.475906
-1.09960e-02,0.476047
-1.09958e-02,0.47625
-1.09957e-02,0.476266
-1.09955e-02,0.476047
-1.09954e-02,0.476188
-1.09952e-02,0.476297
-1.09950e-02,0.476563
-1.09949e-02,0.4765
-1.09947e-02,0.476656
-1.09946e-02,0.476594
-1.09944e-02,0.476563
-1.09942e-02,0.476344
-1.09941e-02,0.476844
-1.09939e-02,0.476531
-1.09938e-02,0.476984
-1.09936e-02,0.476813
-1.09934e-02,0.476859
-1.09933e-02,0.477328
-1.09931e-02,0.476984
-1.09930e-02,0.477156
-1.09928e-02,0.477078
-1.09926e-02,0.476578
-1.09925e-02,0.476438
-1.09923e-02,0.476328
-1.09922e-02,0.476328
-1.09920e-02,0.476047
-1.09918e-02,0.475813
-1.09917e-02,0.475906
-1.09915e-02,0.475406
-1.09914e-02,0.475406
-1.09912e-02,0.475234
-1.09910e-02,0.475469
-1.09909e-02,0.475344
-1.09907e-02,0.475438
-1.09906e-02,0.475563
-1.09904e-02,0.475672
-1.09902e-02,0.475906
-1.09901e-02,0.475531
-1.09899e-02,0.475609
-1.09898e-02,0.475891
-1.09896e-02,0.475688
-1.09894e-02,0.475641
-1.09893e-02,0.476344
-1.09891e-02,0.476469
-1.09890e-02,0.476563
-1.09888e-02,0.476719
-1.09886e-02,0.476844
-1.09885e-02,0.477047
-1.09883e-02,0.477188
-1.09882e-02,0.477344
-1.09880e-02,0.477172
-1.09878e-02,0.477141
-1.09877e-02,0.477
-1.09875e-02,0.477156
-1.09874e-02,0.477234
-1.09872e-02,0.476984
-1.09870e-02,0.476875
-1.09869e-02,0.477063
-1.09867e-02,0.476703
-1.09866e-02,0.476734
-1.09864e-02,0.476734
-1.09862e-02,0.476797
-1.09861e-02,0.476781
-1.09859e-02,0.4765
-1.09858e-02,0.476422
-1.09856e-02,0.476266
-1.09854e-02,0.476953
-1.09853e-02,0.477297
-1.09851e-02,0.477375
-1.09850e-02,0.477359
-1.09848e-02,0.476906
-1.09846e-02,0.476641
-1.09845e-02,0.476922
-1.09843e-02,0.4765
-1.09842e-02,0.476344
-1.09840e-02,0.476828
-1.09838e-02,0.476781
-1.09837e-02,0.477156
-1.09835e-02,0.477234
-1.09834e-02,0.477594
-1.09832e-02,0.477813
-1.09830e-02,0.477828
-1.09829e-02,0.477313
-1.09827e-02,0.477531
-1.09826e-02,0.476969
-1.09824e-02,0.476484
-1.09822e-02,0.476688
-1.09821e-02,0.476516
-1.09819e-02,0.476375
-1.09818e-02,0.476578
-1.09816e-02,0.476516
-1.09814e-02,0.477047
-1.09813e-02,0.477188
-1.09811e-02,0.477516
-1.09810e-02,0.477578
-1.09808e-02,0.477531
-1.09806e-02,0.477703
-1.09805e-02,0.477453
-1.09803e-02,0.477594
-1.09802e-02,0.477609
-1.09800e-02,0.477594
-1.09798e-02,0.477641
-1.09797e-02,0.477844
-1.09795e-02,0.477641
-1.09794e-02,0.477953
-1.09792e-02,0.477734
-1.09790e-02,0.477797
-1.09789e-02,0.477891
-1.09787e-02,0.477125
-1.09786e-02,0.477188
-1.09784e-02,0.47675
-1.09782e-02,0.476375
-1.09781e-02,0.476641
-1.09779e-02,0.476547
-1.09778e-02,0.476969
-1.09776e-02,0.477281
-1.09774e-02,0.477453
-1.09773e-02,0.47775
-1.09771e-02,0.477563
-1.09770e-02,0.477391
-1.09768e-02,0.477203
-1.09766e-02,0.477203
-1.09765e-02,0.477125
-1.09763e-02,0.477094
-1.09762e-02,0.477109
-1.09760e-02,0.477375
-1.09758e-02,0.477609
-1.09757e-02,0.477719
-1.09755e-02,0.477688
-1.09754e-02,0.477297
-1.09752e-02,0.477219
-1.09750e-02,0.477203
-1.09749e-02,0.477203
-1.09747e-02,0.477188
-1.09746e-02,0.477391
-1.09744e-02,0.477172
-1.09742e-02,0.477359
-1.09741e-02,0.477766
-1.09739e-02,0.477953
-1.09738e-02,0.478297
-1.09736e-02,0.478047
-1.09734e-02,0.478078
-1.09733e-02,0.478
-1.09731e-02,0.478
-1.09730e-02,0.478
-1.09728e-02,0.478094
-1.09726e-02,0.478375
-1.09725e-02,0.478359
-1.09723e-02,0.478219
-1.09722e-02,0.478297
-1.09720e-02,0.478406
-1.09718e-02,0.478063
-1.09717e-02,0.478375
-1.09715e-02,0.478203
-1.09714e-02,0.478234
-1.09712e-02,0.478219
-1.09710e-02,0.477875
-1.09709e-02,0.477266
-1.09707e-02,0.477734
-1.09706e-02,0.477391
-1.09704e-02,0.477203
-1.09702e-02,0.4775
-1.09701e-02,0.477172
-1.09699e-02,0.47725
-1.09698e-02,0.477359
-1.09696e-02,0.477422
-1.09694e-02,0.477172
-1.09693e-02,0.477219
-1.09691e-02,0.477313
-1.09690e-02,0.477922
-1.09688e-02,0.477891
-1.09686e-02,0.477969
-1.09685e-02,0.478094
-1.09683e-02,0.478219
-1.09682e-02,0.478547
-1.09680e-02,0.478578
-1.09678e-02,0.478844
-1.09677e-02,0.478578
-1.09675e-02,0.478531
-1.09674e-02,0.478594
-1.09672e-02,0.478281
-1.09670e-02,0.478
-1.09669e-02,0.477969
-1.09667e-02,0.477938
-1.09666e-02,0.478078
-1.09664e-02,0.477984
-1.09662e-02,0.478078
-1.09661e-02,0.477672
-1.09659e-02,0.477922
-1.09658e-02,0.477766
-1.09656e-02,0.478359
-1.09654e-02,0.478063
-1.09653e-02,0.478406
-1.09651e-02,0.47825
-1.09650e-02,0.478672
-1.09648e-02,0.478766
-1.09646e-02,0.479031
-1.09645e-02,0.478703
-1.09643e-02,0.478328
-1.09642e-02,0.478406
-1.09640e-02,0.478703
-1.09638e-02,0.478875
-1.09637e-02,0.478672
-1.09635e-02,0.478031
-1.09634e-02,0.477953
-1.09632e-02,0.477813
-1.09630e-02,0.477578
-1.09629e-02,0.477469
-1.09627e-02,0.477281
-1.09626e-02,0.477859
-1.09624e-02,0.478313
-1.09622e-02,0.477844
-1.09621e-02,0.478031
-1.09619e-02,0.477828
-1.09618e-02,0.478
-1.09616e-02,0.478
-1.09614e-02,0.477953
-1.09613e-02,0.477844
-1.09611e-02,0.478234
-1.09610e-02,0.478516
-1.09608e-02,0.478672
-1.09606e-02,0.479297
-1.09605e-02,0.478922
-1.09603e-02,0.479234
-1.09602e-02,0.479219
-1.09600e-02,0.479281
-1.09598e-02,0.479688
-1.09597e-02,0.479609
-1.09595e-02,0.479609
-1.09594e-02,0.48
-1.09592e-02,0.48
-1.09590e-02,0.479578
-1.09589e-02,0.479281
-1.09587e-02,0.479047
-1.09586e-02,0.478844
-1.09584e-02,0.4785
-1.09582e-02,0.478719
-1.09581e-02,0.478563
-1.09579e-02,0.478656
-1.09578e-02,0.478531
-1.09576e-02,0.478938
-1.09574e-02,0.478891
-1.09573e-02,0.479047
-1.09571e-02,0.479
-1.09570e-02,0.478984
-1.09568e-02,0.478969
-1.09566e-02,0.479031
-1.09565e-02,0.478984
-1.09563e-02,0.478734
-1.09562e-02,0.478359
-1.09560e-02,0.478563
-1.09558e-02,0.4785
-1.09557e-02,0.478844
-1.09555e-02,0.478344
-1.09554e-02,0.478344
-1.09552e-02,0.478281
-1.09550e-02,0.478313
-1.09549e-02,0.478422
-1.09547e-02,0.4785
-1.09546e-02,0.478594
-1.09544e-02,0.478906
-1.09542e-02,0.478984
-1.09541e-02,0.479219
-1.09539e-02,0.479094
-1.09538e-02,0.478719
-1.09536e-02,0.478625
-1.09534e-02,0.478391
-1.09533e-02,0.478422
-1.09531e-02,0.478438
-1.09530e-02,0.478703
-1.09528e-02,0.478797
-1.09526e-02,0.479219
-1.09525e-02,0.479078
-1.09523e-02,0.478859
-1.09522e-02,0.479125
-1.09520e-02,0.479203
-1.09518e-02,0.479297
-1.09517e-02,0.479563
-1.09515e-02,0.479313
-1.09514e-02,0.479094
-1.09512e-02,0.478766
-1.09510e-02,0.478109
-1.09509e-02,0.478203
-1.09507e-02,0.477875
-1.09506e-02,0.478078
-1.09504e-02,0.478359
-1.09502e-02,0.478453
-1.09501e-02,0.478719
-1.09499e-02,0.479125
-1.09498e-02,0.478969
-1.09496e-02,0.478922
-1.09494e-02,0.478938
-1.09493e-02,0.479
-1.09491e-02,0.479063
-1.09490e-02,0.479094
-1.09488e-02,0.478969
-1.09486e-02,0.479109
-1.09485e-02,0.479641
-1.09483e-02,0.479516
-1.09482e-02,0.47975
-1.09480e-02,0.479734
-1.09478e-02,0.479922
-1.09477e-02,0.480219
-1.09475e-02,0.479672
-1.09474e-02,0.479625
-1.09472e-02,0.479172
-1.09470e-02,0.478656
-1.09469e-02,0.478813
-1.09467e-02,0.478719
-1.09466e-02,0.478813
-1.09464e-02,0.479016
-1.09462e-02,0.478953
-1.09461e-02,0.478594
-1.09459e-02,0.478797
-1.09458e-02,0.479234
-1.09456e-02,0.479594
-1.09454e-02,0.479563
-1.09453e-02,0.479672
-1.09451e-02,0.479516
-1.09450e-02,0.479484
-1.09448e-02,0.479516
-1.09446e-02,0.479438
-1.09445e-02,0.479641
-1.09443e-02,0.479703
-1.09442e-02,0.479734
-1.09440e-02,0.479844
-1.09438e-02,0.479375
-1.09437e-02,0.4795
-1.09435e-02,0.479641
-1.09434e-02,0.479563
-1.09432e-02,0.479656
-1.09430e-02,0.479641
-1.09429e-02,0.479938
-1.09427e-02,0.479797
-1.09426e-02,0.479922
-1.09424e-02,0.479578
-1.09422e-02,0.479766
-1.09421e-02,0.479172
-1.09419e-02,0.478859
-1.09418e-02,0.478891
-1.09416e-02,0.478656
-1.09414e-02,0.478688
-1.09413e-02,0.479125
-1.09411e-02,0.478875
-1.09410e-02,0.479359
-1.09408e-02,0.479344
-1.09406e-02,0.479609
-1.09405e-02,0.479906
-1.09403e-02,0.479781
-1.09402e-02,0.479641
-1.09400e-02,0.479703
-1.09398e-02,0.479031
-1.09397e-02,0.478984
-1.09395e-02,0.478906
-1.09394e-02,0.478813
-1.09392e-02,0.478953
-1.09390e-02,0.478609
-1.09389e-02,0.478391
-1.09387e-02,0.478563
-1.09386e-02,0.478891
-1.09384e-02,0.478766
-1.09382e-02,0.478891
-1.09381e-02,0.478813
-1.09379e-02,0.478875
-1.09378e-02,0.478797
-1.09376e-02,0.478891
-1.09374e-02,0.479453
-1.09373e-02,0.479922
-1.09371e-02,0.479984
-1.09370e-02,0.480016
-1.09368e-02,0.480125
-1.09366e-02,0.479953
-1.09365e-02,0.479906
-1.09363e-02,0.480188
-1.09362e-02,0.480141
-1.09360e-02,0.480281
